i 10 d
i 39 r
e 10 r
e 10 d
c
p
p
p
c 10 d
c 39 r
p p p
p
c c c
i 23 23
e 23 23
i 23 23 23
e 3
i 3 3 i 4 3
e
x


i "JANE" "JANE"
i 232 "JANE"
i "JANE3JANE"
i ? ?
i 3333333333333333333333333333333333333333333333333333333333333333333333333333333333333333333333 JANE
c 3333333333333333333333333333333333333333333333333333333333333333333333333333333333333333333333 JANE

e 3333333333333333333333333333333333333333333333333333333333333333333333333333333333333333333333 Jane
e 3333333333333333333333333333333333333333333333333333333333333333333333333333333333333333333333 JANE
c 3333333333333333333333333333333333333333333333333333333333333333333333333333333333333333333333 JANE
\n\n\nn\

i 2 ç 
c 2 ç
p

e 2 ç
i 2.3 ddddd
c 2.3 ddddd
e 2.3 ddddd
c 2.3 ddddd

ã º

q